…
# ----------------------------------------------------
# 13.2 Save the Top Marker List
# ----------------------------------------------------

# Save this clean list as a separate CSV file for easy access and manual annotation.
write.csv(top5_markers_list, "top5_cluster_marker_genes.csv", row.names = FALSE)

cat("\nFull list of top 5 marker genes for every cluster saved as 'top5_cluster_marker_genes.csv'.\n")
```

check

``` r
--- Top 5 Marker Genes for Every Cluster ---
# A tibble: 100 × 6
# Groups:   Cluster_ID [20]
   Cluster_ID  Rank Gene      pct.1 pct.2 p_val_adj
   <fct>      <dbl> <chr>     <dbl> <dbl>     <dbl>
 1 0           5.01 LINC01857 0.266 0.015         0
 2 0           4.37 VPREB3    0.459 0.029         0
 3 0           4.37 TCL1A     0.379 0.024         0
 4 0           4.34 CD24      0.321 0.017         0
 5 0           4.20 FCRLA     0.43  0.039         0
 6 1           4.43 GNLY      0.28  0.031         0
 7 1           4.33 XCL2      0.541 0.037         0
 8 1           4.33 NKG7      0.979 0.119         0
 9 1           4.21 KLRC2     0.371 0.024         0
10 1           4.15 GZMH      0.735 0.059         0
# ℹ 90 more rows
```
…
